01 0c cd 01 00 05 01 0c cd 01 10 10 81 00 80 01 
88 b8 00 05 00 e3 00 00 00 00 61 81 d8 80 20 58 
37 32 31 32 5f 32 4c 42 31 5f 47 4f 50 52 4f 54 
2f 4c 4c 4e 30 24 47 4f 24 67 6f 63 62 54 78 81 
01 08 82 20 58 37 32 31 32 5f 32 4c 42 31 5f 47 
4f 50 52 4f 54 2f 4c 4c 4e 30 24 64 73 47 6f 6f 
73 65 54 78 83 11 58 37 32 31 32 5f 47 4f 4f 53 
45 5f 54 58 5f 49 44 84 08 00 00 00 00 00 00 00 
00 85 01 04 86 01 00 87 01 00 88 01 20 89 01 00 
8a 01 20 ab 60 83 01 00 84 01 00 83 01 00 84 01 
00 83 01 00 84 01 00 83 01 00 84 01 00 83 01 00 
84 01 00 83 01 00 84 01 00 83 01 00 84 01 00 83 
01 00 84 01 00 83 01 00 84 01 00 83 01 00 84 01 
00 83 01 00 84 01 00 83 01 00 84 01 00 83 01 00 
84 01 00 83 01 00 84 01 00 83 01 00 84 01 00 83 
01 01 84 01 05 