00 50 04 07 76 d6 00 0c 02 b0 89 3a 08 00 45 00 
00 9a 3d 63 00 16 40 06 db 58 ac 1e 04 02 ac 1e 
05 64 00 72 02 f0 80 01 00 01 00 61 65 30 63 02 
01 03 a0 5e a3 5c a0 5a a1 05 80 03 52 50 54 a0 
51 8a 19 46 37 31 34 4c 44 30 2f 4c 4c 4e 30 24 
72 63 62 4d 65 61 73 46 6c 74 30 31 84 03 06 51 
00 86 01 71 89 08 00 06 10 ae 00 00 00 00 84 09 
04 00 00 00 00 00 00 14 00 87 05 08 40 be 66 66 
91 08 47 c2 7c 6e 17 4f c3 0a 84 02 02 40 84 02 
02 40 